…
print(processed_data)
```

    ## # A tibble: 127 × 5
    ##    tourney_name  tourney_date winner_name  loser_name           score           
    ##    <chr>         <chr>        <chr>        <chr>                <chr>           
    ##  1 Roland Garros 2024-05-26   Nakashima B. Moreno De Alboran N. 6-1 6-7 6-3 6-2 
    ##  2 Roland Garros 2024-05-26   Rublev A.    Daniel T.            6-2 6-7 6-3 7-5 
    ##  3 Roland Garros 2024-05-26   Martinez P.  Tirante T.A.         5-7 6-4 3-6 6-4…
    ##  4 Roland Garros 2024-05-26   Sonego L.    Humbert U.           6-4 2-6 6-4 6-3 
    ##  5 Roland Garros 2024-05-26   Zhang Zh.    Vukic A.             6-4 4-6 6-3 7-5 
    ##  6 Roland Garros 2024-05-26   De Jong J.   Draper J.            7-5 6-4 6-7 3-6…
    ##  7 Roland Garros 2024-05-26   Hurkacz H.   Mochizuki S.         4-6 6-3 3-6 6-0…
    ##  8 Roland Garros 2024-05-26   Dimitrov G.  Kovacevic A.         6-4 6-3 6-4     
    ##  9 Roland Garros 2024-05-26   Marterer M.  Thompson J.          6-3 6-2 6-0     
    ## 10 Roland Garros 2024-05-26   Alcaraz C.   Wolf J.J.            6-1 6-2 6-1     
    ## # ℹ 117 more rows
…
print(processed_us_open_data)
```

    ## # A tibble: 127 × 5
    ##    tourney_name tourney_date winner_name        loser_name       score          
    ##    <chr>        <chr>        <chr>              <chr>            <chr>          
    ##  1 US Open      2024-08-26   Zverev A.          Marterer M.      6-2 6-7 6-3 6-2
    ##  2 US Open      2024-08-26   Bautista Agut R.   Nardi L.         7-5 7-6 7-6    
    ##  3 US Open      2024-08-26   Comesana F.        Stricker D.      4-6 6-3 7-6 6-3
    ##  4 US Open      2024-08-26   Humbert U.         Monteiro T.      6-3 6-4 6-4    
    ##  5 US Open      2024-08-26   Krueger M.         Grenier H.       4-6 6-3 6-4 7-5
    ##  6 US Open      2024-08-26   Carballes Baena R. Choinski J.      6-2 6-3 5-7 6-…
    ##  7 US Open      2024-08-26   Shang J.           Bublik A.        6-4 3-6 5-7 6-…
    ##  8 US Open      2024-08-26   Shelton B.         Thiem D.         6-4 6-2 6-2    
    ##  9 US Open      2024-08-26   Berrettini M.      Ramos-Vinolas A. 7-6 6-2 6-3    
    ## 10 US Open      2024-08-26   Ruud C.            Bu Y.            7-6 6-2 6-2    
    ## # ℹ 117 more rows
…
print(processed_wimbledon_data)
```

    ## # A tibble: 127 × 5
    ##    tourney_name tourney_date winner_name   loser_name        score              
    ##    <chr>        <chr>        <chr>         <chr>             <chr>              
    ##  1 Wimbledon    2024-07-01   Fognini F.    Van Assche L.     6-1 6-3 7-5        
    ##  2 Wimbledon    2024-07-01   Shang J.      Garin C.          7-5 6-4 6-4        
    ##  3 Wimbledon    2024-07-01   Ruud C.       Bolt A.           7-6 6-4 6-4        
    ##  4 Wimbledon    2024-07-01   Coric B.      Meligeni Alves F. 6-3 7-6 6-3        
    ##  5 Wimbledon    2024-07-01   Struff J.L.   Marozsan F.       6-4 6-7 6-2 6-3    
    ##  6 Wimbledon    2024-07-01   Dimitrov G.   Lajovic D.        6-3 6-4 7-5        
    ##  7 Wimbledon    2024-07-01   Shapovalov D. Jarry N.          6-1 7-5 6-4        
    ##  8 Wimbledon    2024-07-01   Tiafoe F.     Arnaldi M.        6-7 2-6 6-1 6-3 6-3
    ##  9 Wimbledon    2024-07-01   Thompson J.   Kotov P.          5-7 5-7 6-4 6-4 6-4
    ## 10 Wimbledon    2024-07-01   Zhang Zh.     Janvier M.        7-6 6-3 6-2        
    ## # ℹ 117 more rows
…
